<svg viewBox="0 0 62 62" xmlns="http://www.w3.org/2000/svg">
  <path d="M43 56h18c.5 0 1 509 1 1v4c0 .5-.5 1-1 1H43c-.5 0-1-.5-1-1v-4c0-.5.5-1 1-1zm-21 0h18c.5519 0 1 .448 1 1v4c0 .552-.4481 1-1 1H22c-.5521 0-1-.448-1-1v-4c0-.552.4479-1 1-1zm0-7h18c.5519 0 1 .448 1 1v4c0 .552-.4481 1-1 1H22c-.5 0-1-.448-1-1v-4c0-.5.5-1 1-1zM1 56h18c.552 0 1 .448 1 1v4c0 .552-.448 1-1 1H1c-.552 0-1-.448-1-1v-4c0-.552.448-1 1-1zM31 0c-7.732 0-14 6.268-14 14 0 4.303 1.945 8.149 5 10.717V14.509c0-.893.592-1.678 1.451-1.923L29 11V8.221c-.61-.549-1-1.336-1-2.221V4c0-1.657 1.343-3 3-3s3 1.343 3 3v2c0 .885-.39 1.672-1 2.221V11l5.5 1.5c.908.331 1.5 1.116 1.5 2v10.217c3-2.568 5-6.414 5-10.717 0-7.732-6.268-14-14-14z" fill="#2B9E90"/>
  <path d="M38.824 11.624L34 10.246V8.618c.615-.703 1-1.612 1-2.618V4c0-2.206-1.794-4-4-4s-4 1.794-4 4v2c0 1 .385 1.915 1 2.618v1.628l-4.824 1.378C21.895 12 21 13.177 21 14.509V25c0 1.654 1.346 3 3 3h1v21h2V15h-2v11h-1c-.552 0-1-.448-1-1V14.509c0-.444.298-.84.725-.961L30 11.754V9.858c.322.084.653.142 1 .142s.678-.058 1-.142v1.896l6.275 1.794c.427.121.725.516.725.961V25c0 .552-.448 1-1 1h-1V15h-2v34h2V28h1c1.654 0 3-1.346 3-3V14.509c0-1.332-.895-2.509-2.176-2.885zM29 6V4c0-1.103.897-2 2-2s2 .897 2 2v2c0 1.103-.897 2-2 2s-2-.897-2-2zm3 18h-2v25h2V24zm27.8241-2.376L55 20.246v-1.628c.6151-.703 1-1.618 1-2.618v-2c0-2.206-1.7939-4-4-4-2.2059 0-4 1.794-4 4v2c0 1 .3851 1.915 1 2.618v1.628l-4.8239 1.378C42.8951 22 42 23.177 42 24.509V36c0 1.654 1.3461 3 3 3h1v17h2V25h-2v12h-1c-.5519 0-1-.448-1-1V24.509c0-.444.2981-.84.7251-.961L51 21.754v-1.896c.3221.084.6531.142 1 .142.3471 0 .6781-.058 1-.142v1.896l6.2751 1.794c.427.121.7249.516.7249.961V36c0 .552-.4479 1-1 1h-1V25h-2v31h2V39h1c1.6541 0 3-1.346 3-3V24.509c0-1.332-.8949-2.509-2.1759-2.885zM50 16v-2c0-1.103.8971-2 2-2 1.1031 0 2 .897 2 2v2c0 1.103-.8969 2-2 2-1.1029 0-2-.897-2-2zm3 18h-2v22h2V34zM17.824 21.624L13 20.246v-1.628c.615-.703 1-1.612 1-2.618v-2c0-2.206-1.794-4-4-4s-4 1.794-4 4v2c0 1.006.385 1.915 1 2.618v1.628l-4.824 1.378C.895 22 0 23.177 0 24.509V36c0 1.654 1.346 3 3 3h1v17h2V25H4v12H3c-.552 0-1-.448-1-1V24.509c0-.444.298-.84.725-.961L9 21.754v-1.896c.322.084.653.142 1 .142s.678-.058 1-.142v1.896l6.275 1.794c.427.121.725.516.725.961V36c0 .552-.448 1-1 1h-1V25h-2v31h2V39h1c1.654 0 3-1.346 3-3V24.509c0-1.332-.895-2.509-2.176-2.885zM8 16v-2c0-1.103.897-2 2-2s2 .897 2 2v2c0 1.103-.897 2-2 2s-2-.897-2-2zm3 18H9v22h2V34z" fill="#6D466B"/>
</svg>


