<svg xmlns="http://www.w3.org/2000/svg" viewBox="0 0 62 62">
  <path fill="#2B9E90" d="M48 2.2l-8.6 12.9-2.4.5c-2.2-1.5-4.7-2.5-7.3-3.1L28.8 9h-7.5l-.9 3.5c-2.6.6-5 1.5-7.1 3L10 13.7 4.7 19l1.8 3.2c-1.4 2.2-2.4 4.6-3 7.1l-3.5.9v7.5l3.5.9c.6 2.6 1.5 5 3 7.1L4.7 49l5.3 5.3 3.2-1.8c2.2 1.4 4.6 2.4 7.1 3l.9 3.5h3c1.9 0 11.7-.4 19.7-8 6.5-6.3 9.9-15.7 10.1-28h7.9L48 2.2zM52 21v1c0 12.2-3.2 21.4-9.4 27.5-8 7.7-18.5 7.5-18.6 7.5h-1.2l-.9-3.2-.6-.1c-2.7-.5-5.3-1.6-7.5-3.1l-.5-.4-2.9 1.7-3.2-3.2 1.7-2.9-.4-.5c-1.6-2.3-2.6-4.8-3.1-7.5l-.1-.6-3.3-1v-4.5l3.2-.9.1-.6c.5-2.7 1.6-5.3 3.1-7.5l.4-.5-1.7-2.9 3.2-3.2 2.9 1.7.5-.4c2.3-1.6 4.8-2.6 7.5-3.1l.6-.1.9-3.2h4.5l.9 3.2.6.1c2.7.5 5.3 1.6 7.5 3.1l.4.2 1.2-.2-1.6 2.4C33.1 17.3 29.4 16 25 16c-9.9 0-18 8.1-18 18s8 18 18 18c.7.1 5.9.4 10.8-4 5.5-4.9 8.3-13.7 8.3-26v-1H38L48 5.8 58.1 21H52zM31 33v15.8c-.7.3-1.4.6-2 .8V40h-8v9.5c-.7-.2-1.4-.4-2-.7V35h-8v6.7c-1.3-2.3-2-4.9-2-7.7 0-8.8 7.2-16 16-16 4 0 7.3 1.2 10.1 3.6l-1 1.4H42c-.1 6.9-1.1 12.5-3 16.9V33h-8z"/>
  <path fill="#6D466B" d="M32 28c0 .3 0 .5.1.8l-5.4 3.8c-.5-.4-1.1-.6-1.7-.6-.8 0-1.5.3-2.1.8l-5-2.5v-.4c0-1.7-1.3-3-3-3s-3 1.3-3 3 1.3 3 3 3c.8 0 1.5-.3 2.1-.8l5 2.5v.4c0 1.7 1.3 3 3 3s3-1.3 3-3c0-.3 0-.5-.1-.8l5.4-3.8c.5.4 1.1.6 1.7.6 1.7 0 3-1.3 3-3s-1.3-3-3-3-3 1.3-3 3zm-17 3c-.6 0-1-.4-1-1s.4-1 1-1 1 .4 1 1-.4 1-1 1zm10 5c-.6 0-1-.4-1-1s.4-1 1-1 1 .4 1 1-.4 1-1 1zm10-9c.6 0 1 .4 1 1s-.4 1-1 1-1-.4-1-1 .4-1 1-1z"/>
  <path fill="none" stroke="#6D466B" stroke-width="2" stroke-miterlimit="10" d="M9 1h2m0 2h2M9 5h2M7 3h2m26 1h2m0 2h2m-4 2h2m-4-2h2m23 30h2m0 2h2m-4 2h2m-4-2h2m-3 12h2m0 2h2m-4 2h2m-4-2h2m-10 5h2m0 2h2m-4 2h2m-4-2h2M4 55h2m0 2h2m-4 2h2m-4-2h2"/>
</svg>