<svg viewBox="0 0 58 62" xmlns="http://www.w3.org/2000/svg">
  <path d="M32 52l-3-2-3 2 2 4-1 5h4l-1-5 2-4zm3.6411-28.8291C34.187 21.1802 31.876 20 29.395 20H29c-5.5142 0-10 4.4858-10 10v7h1c0-1.6572 1.3428-3 3-3v-2c1.9561 0 3.8691-.5791 5.4961-1.6641L29 30l.5039.3359C31.1309 31.4209 33.0439 32 35 32v2c1.6572 0 3 1.3428 3 3h1v-8.8379c0-2.206-1.3359-4.1699-3.3589-4.9912z" fill="#6D466B"/>
  <path d="M58 53.772c0-2.0728-1.3042-3.9541-3.2441-4.6822L50 47.3071V46.46c.7568-.6792 1.3398-1.545 1.6748-2.5279C53.5591 43.6089 55 41.9741 55 40v-4c0-1.479-.3652-2.8721-1-4.104v-5.124c0-2.0728-1.3042-3.9541-3.2441-4.6822L46 20.3071V19.46c.7568-.6792 1.3398-1.545 1.6748-2.5279C49.5591 16.6089 51 14.9741 51 13V9c0-4.96191-4.0371-9-9-9s-9 4.03809-9 9v4c0 1.9741 1.4409 3.6089 3.3252 3.9321.335.982.918 1.8477 1.6748 2.5279v.8471l-3.7578 1.4087c.521.4204.9946.9024 1.3989 1.4551.063.0259.1187.062.1807.0903l2.4292-.9111C38.8071 23.8901 40.27 25 42 25s3.1929-1.1099 3.749-2.6509l4.3042 1.6138C51.2178 24.3999 52 25.5278 52 26.772v2.539C50.4058 27.8789 48.3061 27 46 27c-2.8262 0-5.3491 1.312-7 3.356V36c0-3.8599 3.1411-7 7-7s7 3.1401 7 7v.5562C52.4092 36.2119 51.7319 36 51 36H41c-.749 0-1.4429.2202-2.043.5791-.1782-1.668-1.3701-3.0249-2.957-3.437V31h-1c-1.7642 0-3.4731-.5181-4.9409-1.4961L29 28.7978l-1.0591.7061C26.4731 30.4819 24.7642 31 23 31h-1v2.1421c-1.7212.4468-3 2-3 3.8579v-.4438C18.4092 36.2119 17.7319 36 17 36h-.1719c-1.5571 0-3.021-.606-4.1211-1.707L12 33.585l-.707.708C10.1919 35.394 8.729 36 7.17187 36H7c-.73193 0-1.40918.2119-2 .5562V36c0-3.8599 3.14111-7 7-7 3.8589 0 7 3.1401 7 7v-5.644C17.3491 28.312 14.8262 27 12 27c-2.30615 0-4.40576.8789-6 2.311v-2.539c0-1.2442.78223-2.3721 1.94678-2.8091L12.25 22.3491C12.8071 23.8901 14.27 25 16 25s3.1929-1.1099 3.749-2.6509l2.0239.7588c.5303-.5561 1.1211-1.0517 1.7662-1.4741L20 20.3071v-.8633c.751-.6787 1.3408-1.5336 1.6748-2.5117C23.5591 16.6089 25 14.9741 25 13V9c0-4.96191-4.0371-9-9-9S7 4.03809 7 9v4c0 1.9741 1.44092 3.6089 3.3252 3.9321.334.979.9238 1.833 1.6748 2.5117v.8633l-4.75488 1.7837C5.3042 22.8179 4 24.6992 4 26.772v5.124C3.36523 33.1279 3 34.521 3 36v4c0 1.9741 1.44092 3.6089 3.32519 3.9321.33399.979.92383 1.833 1.67481 2.5117v.8633l-4.75488 1.7827C1.3042 49.8179 0 51.6992 0 53.772V60h14v2h30v-2h14v-6.228zM48 14.7222v-3.4434c.5952.3472 1 .9854 1 1.7222 0 .7368-.4048 1.374-1 1.7212zm-12 0c-.5952-.3472-1-.9854-1-1.7222 0-.7368.4048-1.375 1-1.7222v3.4444zM37 9c-.7319 0-1.4092.21191-2 .55615V9c0-3.85986 3.1411-7 7-7s7 3.14014 7 7v.55615C48.4092 9.21191 47.7319 9 47 9c-1.0078 0-1.9941-.40918-2.707-1.12109l-1.1661-1.16602-1.186.79102C40.4731 8.48193 38.7642 9 37 9zm7 12c0 1.103-.897 2-2 2s-2-.897-2-2v-.3501c.6269.2231 1.2978.3501 2 .3501.7021 0 1.373-.1279 2-.3501V21zm-2-2c-2.2061 0-4-1.7939-4-4v-4.0708c1.73-.1592 3.397-.7021 4.8711-1.64404l.0078.00781c.8472.84713 1.9492 1.40723 3.1211 1.61423V15c0 2.2061-1.7939 4-4 4zm-24 2c0 1.103-.897 2-2 2s-2-.897-2-2v-.3521c.627.2232 1.2969.3521 2 .3521.7031 0 1.373-.1289 2-.3521V21zm2-6c0 2.2061-1.7939 4-4 4s-4-1.7939-4-4v-4h8v4zm2-.2778v-3.4434c.5952.3472 1 .9854 1 1.7222 0 .7368-.4048 1.374-1 1.7212zm-12 0C9.40478 14.375 9 13.7368 9 13c0-.7368.40478-1.375 1-1.7222v3.4444zM11 9c-.7319 0-1.40918.21191-2 .55615V9c0-3.85986 3.1411-7 7-7s7 3.14014 7 7v.55615C22.4092 9.21191 21.7319 9 21 9H11zM6 41.7222C5.40478 41.375 5 40.7368 5 40c0-.7368.40478-1.375 1-1.7222v3.4444zm36 5.5996l-2.4922.9931L33 45.356v-1.6202c1.001-.6997 1.8071-1.6547 2.3311-2.77.622-.0517 1.2021-.2407 1.7109-.5459.1899 1.7813 1.5361 3.2119 3.2822 3.5112.336.983.919 1.8487 1.6758 2.5289v.8618zM29 48.333l-2-2.666v-.9619c.6338.1899 1.3052.2949 2 .2949.6948 0 1.3662-.105 2-.2949v.9619l-2 2.666zm-3.3179-1.0898l1.9361 2.582-3.2774 2.6216-1.8706-3.7427 3.2119-1.4609zm6.6358 0l3.2129 1.4599-1.8706 3.7427-3.2774-2.6216 1.9351-2.581zM44 47.6499c.627.2231 1.2978.3501 2 .3501.7021 0 1.373-.1279 2-.3501v.0171l-2 2.667-2-2.667v-.0171zM46 46c-2.2061 0-4-1.7939-4-4v-4h8v4c0 2.2061-1.7939 4-4 4zm7-6c0 .7368-.4048 1.375-1 1.7222v-3.4434c.5952.3462 1 .9844 1 1.7212zm-13-1.7222v3.4434c-.5952-.3472-1-.9854-1-1.7222 0-.7368.4048-1.374 1-1.7212zM37 37c0 .7539-.4238 1.4028-1.041 1.7441.0259-.2451.041-.4931.041-.7441v-2.7222c.5952.3472 1 .9854 1 1.7222zm-13-4.0449c1.7822-.1631 3.4932-.7613 5-1.753 1.5068.9917 3.2178 1.5899 5 1.753V38c0 2.7568-2.2432 5-5 5s-5-2.2432-5-5v-5.0449zm-2 2.3227V38c0 .251.0151.499.041.7441C21.4238 38.4028 21 37.7539 21 37c0-.7368.4048-1.375 1-1.7222zm-4 3c.5952.3472 1 .9854 1 1.7222 0 .7368-.4048 1.375-1 1.7222v-3.4444zm-.3252 5.6543c1.7461-.2993 3.0962-1.73 3.2871-3.5093.5083.3042 1.0869.4922 1.707.544.524 1.1152 1.3301 2.0703 2.3311 2.77v1.6201l-6.5078 2.958L16 47.3218v-.878c.751-.6787 1.3408-1.5336 1.6748-2.5117zm-9.6748-6c1.46387-.1543 2.8452-.688 4-1.5962 1.1548.9092 2.5361 1.4419 4 1.5962V42c0 2.2061-1.7939 4-4 4-2.20606 0-4-1.7939-4-4v-4.0679zM12 48c.7031 0 1.373-.1289 2-.3521v.0191l-2 2.667-2-2.667v-.0191c.627.2232 1.2969.3521 2 .3521zM2 58v-4.228c0-1.2442.78223-2.3721 1.94678-2.8091l4.70312-1.7627L12 53.667l3.3408-4.4541 1.0283.4092C14.8911 50.9311 14 52.8301 14 54.8628V58H2zm40 2h-4v-4h-2v4H22v-4h-2v4h-4v-5.1372c0-1.9556 1.1499-3.7417 2.9321-4.5518l1.7158-.7802 3.0123 6.0224L29 51.2808l5.3408 4.2734 3.0112-6.022 1.7159.7798C40.8501 51.1211 42 52.9082 42 54.8628V60zm14-2H44v-3.1372c0-2.0327-.8911-3.9326-2.3691-5.2407l1.0283-.4102L46 53.667l3.3501-4.4668 4.7031 1.7637C55.2178 51.3999 56 52.5278 56 53.772V58z" fill="#2B9E90"/>
</svg>